....
----------------------------------------------------------------------
Ran 4 tests in 0.002s

OK
Name               Stmts   Miss Branch BrPart  Cover   Missing
--------------------------------------------------------------
Diplomacy.py          87     12     74      5    81%   47->48, 48, 50->54, 72->73, 73-75, 85->86, 86-90, 92->100, 100-102
TestDiplomacy.py      22      0      2      1    96%   57->exit
--------------------------------------------------------------
TOTAL                109     12     76      6    83%