................
----------------------------------------------------------------------
Ran 16 tests in 0.006s

OK
Name               Stmts   Miss Branch BrPart  Cover   Missing
--------------------------------------------------------------
Diplomacy.py          64      5     48      3    89%   48->51, 51, 52->54, 75->79, 79-82
TestDiplomacy.py      76      0      0      0   100%
--------------------------------------------------------------
TOTAL                140      5     48      3    94%
