....
----------------------------------------------------------------------
Ran 4 tests in 0.001s

OK
Name               Stmts   Miss Branch BrPart  Cover   Missing
--------------------------------------------------------------
Diplomacy.py          73      1     52      4    96%   25->32, 30->32, 33->22, 119->120, 120
TestDiplomacy.py      24      0      0      0   100%
--------------------------------------------------------------
TOTAL                 97      1     52      4    97%
