.............
----------------------------------------------------------------------
Ran 13 tests in 0.002s

OK
Name               Stmts   Miss Branch BrPart  Cover   Missing
--------------------------------------------------------------
Diplomacy.py          64      0     46      0   100%
TestDiplomacy.py      64      0      0      0   100%
--------------------------------------------------------------
TOTAL                128      0     46      0   100%
